…
In this part, we will going to include popularity in the correlation
plot from data of songs with top 100 popularity to see if there’s any
correlation betweeen other factors and the popularity of the song.

``` r
df_new <- df_spotify_songs %>%
  select(track_id, track_name,track_artist,track_popularity,danceability,energy,key,loudness,mode,speechiness,acousticness,instrumentalness,liveness,valence,tempo,duration_ms)
top100 <- unique(df_new[order(-df_new$track_popularity),],incomparables = FALSE)%>%
  head(100)
  
top100
```

    ## # A tibble: 100 x 16
    ##    track_id track_name track_artist track_popularity danceability energy   key
    ##    <chr>    <chr>      <chr>                   <dbl>        <dbl>  <dbl> <dbl>
    ##  1 2XU0oxn… Dance Mon… Tones and I               100        0.824  0.588     6
    ##  2 696Dnlk… ROXANNE    Arizona Zer…               99        0.621  0.601     6
    ##  3 7k4t7uL… Tusa       KAROL G                    98        0.803  0.715     2
    ##  4 2b8fOow… Memories   Maroon 5                   98        0.764  0.32     11
    ##  5 0sf12qN… Blinding … The Weeknd                 98        0.513  0.796     1
    ##  6 21jGcNK… Circles    Post Malone                98        0.695  0.762     0
    ##  7 0nbXyq5… The Box    Roddy Ricch                98        0.896  0.586    10
    ##  8 3ZCTVFB… everythin… Billie Eili…               97        0.704  0.225     6
    ##  9 6WrI0LA… Don't Sta… Dua Lipa                   97        0.794  0.793    11
    ## 10 4TnjEaW… Falling    Trevor Dani…               97        0.784  0.43     10
    ## # … with 90 more rows, and 9 more variables: loudness <dbl>, mode <dbl>,
    ## #   speechiness <dbl>, acousticness <dbl>, instrumentalness <dbl>,
    ## #   liveness <dbl>, valence <dbl>, tempo <dbl>, duration_ms <dbl>

``` r
t100correlation_data <- top100[,-(1:3)]
t100correlation_data
```

    ## # A tibble: 100 x 13
    ##    track_popularity danceability energy   key loudness  mode speechiness
    ##               <dbl>        <dbl>  <dbl> <dbl>    <dbl> <dbl>       <dbl>
    ##  1              100        0.824  0.588     6    -6.4      0      0.0924
    ##  2               99        0.621  0.601     6    -5.62     0      0.148 
    ##  3               98        0.803  0.715     2    -3.28     1      0.298 
    ##  4               98        0.764  0.32     11    -7.21     1      0.0546
    ##  5               98        0.513  0.796     1    -4.08     1      0.0629
    ##  6               98        0.695  0.762     0    -3.50     1      0.0395
    ##  7               98        0.896  0.586    10    -6.69     0      0.0559
    ##  8               97        0.704  0.225     6   -14.5      0      0.0994
    ##  9               97        0.794  0.793    11    -4.52     0      0.0842
    ## 10               97        0.784  0.43     10    -8.76     0      0.0364
    ## # … with 90 more rows, and 6 more variables: acousticness <dbl>,
    ## #   instrumentalness <dbl>, liveness <dbl>, valence <dbl>, tempo <dbl>,
    ## #   duration_ms <dbl>
…
